simulation/qsim/mux.msim.vcd
$comment
	File created using the following command:
		vcd file mux.msim.vcd -direction
$end
$date
	Mon Feb 23 22:13:30 2026
$end
$version
	ModelSim Version 10.5b
$end
$timescale
	1ps
$end

$scope module mux_vhd_vec_tst $end
$var wire 1 ! a1 $end
$var wire 1 " a2 $end
$var wire 1 # f $end
$var wire 1 $ s $end

$scope module i1 $end
$var wire 1 % gnd $end
$var wire 1 & vcc $end
$var wire 1 ' unknown $end
$var wire 1 ( devoe $end
$var wire 1 ) devclrn $end
$var wire 1 * devpor $end
$var wire 1 + ww_devoe $end
$var wire 1 , ww_devclrn $end
$var wire 1 - ww_devpor $end
$var wire 1 . ww_a1 $end
$var wire 1 / ww_a2 $end
$var wire 1 0 ww_s $end
$var wire 1 1 ww_f $end
$var wire 1 2 \f~output_o\ $end
$var wire 1 3 \a2~input_o\ $end
$var wire 1 4 \s~input_o\ $end
$var wire 1 5 \a1~input_o\ $end
$var wire 1 6 \f~0_combout\ $end
$var wire 1 7 \ALT_INV_a2~input_o\ $end
$var wire 1 8 \ALT_INV_s~input_o\ $end
$var wire 1 9 \ALT_INV_a1~input_o\ $end
$upscope $end
$upscope $end
$enddefinitions $end
#0
$dumpvars
0!
0"
0#
0$
0%
1&
x'
1(
1)
1*
1+
1,
1-
0.
0/
00
01
02
03
04
05
06
17
18
19
$end
#5000
1"
1/
13
07
#10000
0"
0/
03
17
#15000
1"
1!
1/
1.
15
13
07
09
16
12
11
1#
#20000
0"
0/
03
17
#25000
1"
1/
13
07
#30000
0"
0!
0/
0.
05
03
17
19
06
02
01
0#
#35000
1"
1/
13
07
#40000
0"
0/
03
17
#45000
1"
1!
1/
1.
15
13
07
09
16
12
11
1#
#50000
0"
0/
03
17
#55000
1"
1/
13
07
#60000
0"
0!
0/
0.
05
03
17
19
06
02
01
0#
#65000
1"
1/
13
07
#70000
0"
0/
03
17
#75000
1"
1!
1/
1.
15
13
07
09
16
12
11
1#
#80000
0"
0/
03
17
#85000
1"
1/
13
07
#90000
0"
0!
0/
0.
05
03
17
19
06
02
01
0#
#95000
1"
1/
13
07
#100000
0"
0/
03
17
#105000
1"
1!
1/
1.
15
13
07
09
16
12
11
1#
#110000
0"
0/
03
17
#115000
1"
1/
13
07
#120000
0"
0!
0/
0.
05
03
17
19
06
02
01
0#
#125000
1"
1/
13
07
#130000
0"
0/
03
17
#135000
1"
1!
1/
1.
15
13
07
09
16
12
11
1#
#140000
0"
0/
03
17
#145000
1"
1/
13
07
#150000
0"
0!
0/
0.
05
03
17
19
06
02
01
0#
#155000
1"
1/
13
07
#160000
0"
0/
03
17
#165000
1"
1!
1/
1.
15
13
07
09
16
12
11
1#
#170000
0"
0/
03
17
#175000
1"
1/
13
07
#180000
0"
0!
0/
0.
05
03
17
19
06
02
01
0#
#185000
1"
1/
13
07
#190000
0"
0/
03
17
#195000
1"
1!
1/
1.
15
13
07
09
16
12
11
1#
#200000
0"
0/
03
17
#205000
1"
1/
13
07
#210000
0"
0!
0/
0.
05
03
17
19
06
02
01
0#
#215000
1"
1/
13
07
#220000
0"
0/
03
17
#225000
1"
1!
1/
1.
15
13
07
09
16
12
11
1#
#230000
0"
0/
03
17
#235000
1"
1/
13
07
#240000
0"
0!
0/
0.
05
03
17
19
06
02
01
0#
#245000
1"
1/
13
07
#250000
0"
0/
03
17
#255000
1"
1!
1/
1.
15
13
07
09
16
12
11
1#
#260000
0"
0/
03
17
#265000
1"
1/
13
07
#270000
0"
0!
0/
0.
05
03
17
19
06
02
01
0#
#275000
1"
1/
13
07
#280000
0"
0/
03
17
#285000
1"
1!
1/
1.
15
13
07
09
16
12
11
1#
#290000
0"
0/
03
17
#295000
1"
1/
13
07
#300000
0"
0!
0/
0.
05
03
17
19
06
02
01
0#
#305000
1"
1/
13
07
#310000
0"
0/
03
17
#315000
1"
1!
1/
1.
15
13
07
09
16
12
11
1#
#320000
0"
0/
03
17
#325000
1"
1/
13
07
#330000
0"
0!
0/
0.
05
03
17
19
06
02
01
0#
#335000
1"
1/
13
07
#340000
0"
0/
03
17
#345000
1"
1!
1/
1.
15
13
07
09
16
12
11
1#
#350000
0"
0/
03
17
#355000
1"
1/
13
07
#360000
0"
0!
0/
0.
05
03
17
19
06
02
01
0#
#365000
1"
1/
13
07
#370000
0"
0/
03
17
#375000
1"
1!
1/
1.
15
13
07
09
16
12
11
1#
#380000
0"
0/
03
17
#385000
1"
1/
13
07
#390000
0"
0!
0/
0.
05
03
17
19
06
02
01
0#
#395000
1"
1/
13
07
#400000
0"
0/
03
17
#405000
1"
1!
1/
1.
15
13
07
09
16
12
11
1#
#410000
0"
0/
03
17
#415000
1"
1/
13
07
#420000
0"
0!
0/
0.
05
03
17
19
06
02
01
0#
#425000
1"
1/
13
07
#430000
0"
0/
03
17
#435000
1"
1!
1/
1.
15
13
07
09
16
12
11
1#
#440000
0"
0/
03
17
#445000
1"
1/
13
07
#450000
0"
0!
0/
0.
05
03
17
19
06
02
01
0#
#455000
1"
1/
13
07
#460000
0"
0/
03
17
#465000
1"
1!
1/
1.
15
13
07
09
16
12
11
1#
#470000
0"
0/
03
17
#475000
1"
1/
13
07
#480000
0"
0!
0/
0.
05
03
17
19
06
02
01
0#
#485000
1"
1/
13
07
#490000
0"
0/
03
17
#495000
1"
1!
1/
1.
15
13
07
09
16
12
11
1#
#500000
0"
0/
03
17
#505000
1"
1/
13
07
#510000
0"
0!
0/
0.
05
03
17
19
06
02
01
0#
#515000
1"
1/
13
07
#520000
0"
0/
03
17
#525000
1"
1!
1/
1.
15
13
07
09
16
12
11
1#
#530000
0"
0/
03
17
#535000
1"
1/
13
07
#540000
0"
0!
0/
0.
05
03
17
19
06
02
01
0#
#545000
1"
1/
13
07
#550000
0"
0/
03
17
#555000
1"
1!
1/
1.
15
13
07
09
16
12
11
1#
#560000
0"
0/
03
17
#565000
1"
1/
13
07
#570000
0"
0!
0/
0.
05
03
17
19
06
02
01
0#
#575000
1"
1/
13
07
#580000
0"
0/
03
17
#585000
1"
1!
1/
1.
15
13
07
09
16
12
11
1#
#590000
0"
0/
03
17
#595000
1"
1/
13
07
#600000
0"
0!
0/
0.
05
03
17
19
06
02
01
0#
#605000
1"
1/
13
07
#610000
0"
0/
03
17
#615000
1"
1!
1/
1.
15
13
07
09
16
12
11
1#
#620000
0"
0/
03
17
#625000
1"
1/
13
07
#630000
0"
0!
0/
0.
05
03
17
19
06
02
01
0#
#635000
1"
1/
13
07
#640000
0"
0/
03
17
#645000
1"
1!
1/
1.
15
13
07
09
16
12
11
1#
#650000
0"
0/
03
17
#655000
1"
1/
13
07
#660000
0"
0!
0/
0.
05
03
17
19
06
02
01
0#
#665000
1"
1/
13
07
#670000
0"
0/
03
17
#675000
1"
1!
1/
1.
15
13
07
09
16
12
11
1#
#680000
0"
0/
03
17
#685000
1"
1/
13
07
#690000
0"
0!
0/
0.
05
03
17
19
06
02
01
0#
#695000
1"
1/
13
07
#700000
0"
0/
03
17
#705000
1"
1!
1/
1.
15
13
07
09
16
12
11
1#
#710000
0"
0/
03
17
#715000
1"
1/
13
07
#720000
0"
0!
0/
0.
05
03
17
19
06
02
01
0#
#725000
1"
1/
13
07
#730000
0"
0/
03
17
#735000
1"
1!
1/
1.
15
13
07
09
16
12
11
1#
#740000
0"
0/
03
17
#745000
1"
1/
13
07
#750000
0"
0!
0/
0.
05
03
17
19
06
02
01
0#
#755000
1"
1/
13
07
#760000
0"
0/
03
17
#765000
1"
1!
1/
1.
15
13
07
09
16
12
11
1#
#770000
0"
0/
03
17
#775000
1"
1/
13
07
#780000
0"
0!
0/
0.
05
03
17
19
06
02
01
0#
#785000
1"
1/
13
07
#790000
0"
0/
03
17
#795000
1"
1!
1/
1.
15
13
07
09
16
12
11
1#
#800000
0"
0/
03
17
#805000
1"
1/
13
07
#810000
0"
0!
0/
0.
05
03
17
19
06
02
01
0#
#815000
1"
1/
13
07
#820000
0"
0/
03
17
#825000
1"
1!
1/
1.
15
13
07
09
16
12
11
1#
#830000
0"
0/
03
17
#835000
1"
1/
13
07
#840000
0"
0!
0/
0.
05
03
17
19
06
02
01
0#
#845000
1"
1/
13
07
#850000
0"
0/
03
17
#855000
1"
1!
1/
1.
15
13
07
09
16
12
11
1#
#860000
0"
0/
03
17
#865000
1"
1/
13
07
#870000
0"
0!
0/
0.
05
03
17
19
06
02
01
0#
#875000
1"
1/
13
07
#880000
0"
0/
03
17
#885000
1"
1!
1/
1.
15
13
07
09
16
12
11
1#
#890000
0"
0/
03
17
#895000
1"
1/
13
07
#900000
0"
0!
0/
0.
05
03
17
19
06
02
01
0#
#905000
1"
1/
13
07
#910000
0"
0/
03
17
#915000
1"
1!
1/
1.
15
13
07
09
16
12
11
1#
#920000
0"
0/
03
17
#925000
1"
1/
13
07
#930000
0"
0!
0/
0.
05
03
17
19
06
02
01
0#
#935000
1"
1/
13
07
#940000
0"
0/
03
17
#945000
1"
1!
1/
1.
15
13
07
09
16
12
11
1#
#950000
0"
0/
03
17
#955000
1"
1/
13
07
#960000
0"
0!
0/
0.
05
03
17
19
06
02
01
0#
#965000
1"
1/
13
07
#970000
0"
0/
03
17
#975000
1"
1!
1/
1.
15
13
07
09
16
12
11
1#
#980000
0"
0/
03
17
#985000
1"
1/
13
07
#990000
0"
0!
0/
0.
05
03
17
19
06
02
01
0#
#995000
1"
1/
13
07
