simulation/qsim/MUX_4_Bits.msim.vcd
$comment
	File created using the following command:
		vcd file MUX_4_Bits.msim.vcd -direction
$end
$date
	Tue Feb 24 07:18:19 2026
$end
$version
	ModelSim Version 10.5b
$end
$timescale
	1ps
$end

$scope module MUX_4_Bits_vlg_vec_tst $end
$var reg 4 ! a1 [3:0] $end
$var reg 4 " a2 [3:0] $end
$var reg 1 # s $end
$var wire 1 $ f [3] $end
$var wire 1 % f [2] $end
$var wire 1 & f [1] $end
$var wire 1 ' f [0] $end

$scope module i1 $end
$var wire 1 ( gnd $end
$var wire 1 ) vcc $end
$var wire 1 * unknown $end
$var tri1 1 + devclrn $end
$var tri1 1 , devpor $end
$var tri1 1 - devoe $end
$var wire 1 . f[0]~output_o $end
$var wire 1 / f[1]~output_o $end
$var wire 1 0 f[2]~output_o $end
$var wire 1 1 f[3]~output_o $end
$var wire 1 2 a2[0]~input_o $end
$var wire 1 3 s~input_o $end
$var wire 1 4 a1[0]~input_o $end
$var wire 1 5 f~0_combout $end
$var wire 1 6 a2[1]~input_o $end
$var wire 1 7 a1[1]~input_o $end
$var wire 1 8 f~1_combout $end
$var wire 1 9 a2[2]~input_o $end
$var wire 1 : a1[2]~input_o $end
$var wire 1 ; f~2_combout $end
$var wire 1 < a2[3]~input_o $end
$var wire 1 = a1[3]~input_o $end
$var wire 1 > f~3_combout $end
$upscope $end
$upscope $end
$enddefinitions $end
#0
$dumpvars
b0 !
b0 "
1#
0'
0&
0%
0$
0(
1)
x*
1+
1,
1-
0.
0/
00
01
02
13
04
05
06
07
08
09
0:
0;
0<
0=
0>
$end
#5000
b1000 !
1=
#10000
b1000 "
b1100 "
b1110 "
b1111 "
b0 !
0=
12
16
19
1<
1>
1;
18
15
1.
1/
10
11
1$
1%
1&
1'
#15000
b1000 !
1=
#20000
b111 "
b11 "
b1 "
b0 "
b0 !
0=
02
06
09
0<
0>
0;
08
05
0.
0/
00
01
0$
0%
0&
0'
#25000
b1000 !
1=
#30000
b1000 "
b1100 "
b1110 "
b1111 "
b0 !
0=
12
16
19
1<
1>
1;
18
15
1.
1/
10
11
1$
1%
1&
1'
#35000
b1000 !
1=
#40000
b111 "
b11 "
b1 "
b0 "
b0 !
0=
02
06
09
0<
0>
0;
08
05
0.
0/
00
01
0$
0%
0&
0'
#45000
b1000 !
1=
#50000
b1000 "
b1100 "
b1110 "
b1111 "
b0 !
0=
12
16
19
1<
1>
1;
18
15
1.
1/
10
11
1$
1%
1&
1'
#55000
b1000 !
1=
#60000
b111 "
b11 "
b1 "
b0 "
b0 !
0=
02
06
09
0<
0>
0;
08
05
0.
0/
00
01
0$
0%
0&
0'
#65000
b1000 !
1=
#70000
b1000 "
b1100 "
b1110 "
b1111 "
b0 !
0=
12
16
19
1<
1>
1;
18
15
1.
1/
10
11
1$
1%
1&
1'
#75000
b1000 !
1=
#80000
b111 "
b11 "
b1 "
b0 "
b0 !
0=
02
06
09
0<
0>
0;
08
05
0.
0/
00
01
0$
0%
0&
0'
#85000
b1000 !
1=
#90000
b1000 "
b1100 "
b1110 "
b1111 "
b0 !
0=
12
16
19
1<
1>
1;
18
15
1.
1/
10
11
1$
1%
1&
1'
#95000
b1000 !
1=
#100000
b111 "
b11 "
b1 "
b0 "
b0 !
0=
02
06
09
0<
0>
0;
08
05
0.
0/
00
01
0$
0%
0&
0'
#105000
b1000 !
1=
#110000
b1000 "
b1100 "
b1110 "
b1111 "
b0 !
0=
12
16
19
1<
1>
1;
18
15
1.
1/
10
11
1$
1%
1&
1'
#115000
b1000 !
1=
#120000
b111 "
b11 "
b1 "
b0 "
b0 !
0=
02
06
09
0<
0>
0;
08
05
0.
0/
00
01
0$
0%
0&
0'
#125000
b1000 !
1=
#130000
b1000 "
b1100 "
b1110 "
b1111 "
b0 !
0=
12
16
19
1<
1>
1;
18
15
1.
1/
10
11
1$
1%
1&
1'
#135000
b1000 !
1=
#140000
b111 "
b11 "
b1 "
b0 "
b0 !
0=
02
06
09
0<
0>
0;
08
05
0.
0/
00
01
0$
0%
0&
0'
#145000
b1000 !
1=
#150000
b1000 "
b1100 "
b1110 "
b1111 "
b0 !
0=
12
16
19
1<
1>
1;
18
15
1.
1/
10
11
1$
1%
1&
1'
#155000
b1000 !
1=
#160000
b111 "
b11 "
b1 "
b0 "
b0 !
0=
02
06
09
0<
0>
0;
08
05
0.
0/
00
01
0$
0%
0&
0'
#165000
b1000 !
1=
#170000
b1000 "
b1100 "
b1110 "
b1111 "
b0 !
0=
12
16
19
1<
1>
1;
18
15
1.
1/
10
11
1$
1%
1&
1'
#175000
b1000 !
1=
#180000
b111 "
b11 "
b1 "
b0 "
b0 !
0=
02
06
09
0<
0>
0;
08
05
0.
0/
00
01
0$
0%
0&
0'
#185000
b1000 !
1=
#190000
b1000 "
b1100 "
b1110 "
b1111 "
b0 !
0=
12
16
19
1<
1>
1;
18
15
1.
1/
10
11
1$
1%
1&
1'
#195000
b1000 !
1=
#200000
b111 "
b11 "
b1 "
b0 "
b0 !
0=
02
06
09
0<
0>
0;
08
05
0.
0/
00
01
0$
0%
0&
0'
#205000
b1000 !
1=
#210000
b1000 "
b1100 "
b1110 "
b1111 "
b0 !
0=
12
16
19
1<
1>
1;
18
15
1.
1/
10
11
1$
1%
1&
1'
#215000
b1000 !
1=
#220000
b111 "
b11 "
b1 "
b0 "
b0 !
0=
02
06
09
0<
0>
0;
08
05
0.
0/
00
01
0$
0%
0&
0'
#225000
b1000 !
1=
#230000
b1000 "
b1100 "
b1110 "
b1111 "
b0 !
0=
12
16
19
1<
1>
1;
18
15
1.
1/
10
11
1$
1%
1&
1'
#235000
b1000 !
1=
#240000
b111 "
b11 "
b1 "
b0 "
b0 !
0=
02
06
09
0<
0>
0;
08
05
0.
0/
00
01
0$
0%
0&
0'
#245000
b1000 !
1=
#250000
b1000 "
b1100 "
b1110 "
b1111 "
b0 !
0=
12
16
19
1<
1>
1;
18
15
1.
1/
10
11
1$
1%
1&
1'
#255000
b1000 !
1=
#260000
b111 "
b11 "
b1 "
b0 "
b0 !
0=
02
06
09
0<
0>
0;
08
05
0.
0/
00
01
0$
0%
0&
0'
#265000
b1000 !
1=
#270000
b1000 "
b1100 "
b1110 "
b1111 "
b0 !
0=
12
16
19
1<
1>
1;
18
15
1.
1/
10
11
1$
1%
1&
1'
#275000
b1000 !
1=
#280000
b111 "
b11 "
b1 "
b0 "
b0 !
0=
02
06
09
0<
0>
0;
08
05
0.
0/
00
01
0$
0%
0&
0'
#285000
b1000 !
1=
#290000
b1000 "
b1100 "
b1110 "
b1111 "
b0 !
0=
12
16
19
1<
1>
1;
18
15
1.
1/
10
11
1$
1%
1&
1'
#295000
b1000 !
1=
#300000
b111 "
b11 "
b1 "
b0 "
b0 !
0=
02
06
09
0<
0>
0;
08
05
0.
0/
00
01
0$
0%
0&
0'
#305000
b1000 !
1=
#310000
b1000 "
b1100 "
b1110 "
b1111 "
b0 !
0=
12
16
19
1<
1>
1;
18
15
1.
1/
10
11
1$
1%
1&
1'
#315000
b1000 !
1=
#320000
b111 "
b11 "
b1 "
b0 "
b0 !
0=
02
06
09
0<
0>
0;
08
05
0.
0/
00
01
0$
0%
0&
0'
#325000
b1000 !
1=
#330000
b1000 "
b1100 "
b1110 "
b1111 "
b0 !
0=
12
16
19
1<
1>
1;
18
15
1.
1/
10
11
1$
1%
1&
1'
#335000
b1000 !
1=
#340000
b111 "
b11 "
b1 "
b0 "
b0 !
0=
02
06
09
0<
0>
0;
08
05
0.
0/
00
01
0$
0%
0&
0'
#345000
b1000 !
1=
#350000
b1000 "
b1100 "
b1110 "
b1111 "
b0 !
0=
12
16
19
1<
1>
1;
18
15
1.
1/
10
11
1$
1%
1&
1'
#355000
b1000 !
1=
#360000
b111 "
b11 "
b1 "
b0 "
b0 !
0=
02
06
09
0<
0>
0;
08
05
0.
0/
00
01
0$
0%
0&
0'
#365000
b1000 !
1=
#370000
b1000 "
b1100 "
b1110 "
b1111 "
b0 !
0=
12
16
19
1<
1>
1;
18
15
1.
1/
10
11
1$
1%
1&
1'
#375000
b1000 !
1=
#380000
b111 "
b11 "
b1 "
b0 "
b0 !
0=
02
06
09
0<
0>
0;
08
05
0.
0/
00
01
0$
0%
0&
0'
#385000
b1000 !
1=
#390000
b1000 "
b1100 "
b1110 "
b1111 "
b0 !
0=
12
16
19
1<
1>
1;
18
15
1.
1/
10
11
1$
1%
1&
1'
#395000
b1000 !
1=
#400000
b111 "
b11 "
b1 "
b0 "
b0 !
0=
02
06
09
0<
0>
0;
08
05
0.
0/
00
01
0$
0%
0&
0'
#405000
b1000 !
1=
#410000
b1000 "
b1100 "
b1110 "
b1111 "
b0 !
0=
12
16
19
1<
1>
1;
18
15
1.
1/
10
11
1$
1%
1&
1'
#415000
b1000 !
1=
#420000
b111 "
b11 "
b1 "
b0 "
b0 !
0=
02
06
09
0<
0>
0;
08
05
0.
0/
00
01
0$
0%
0&
0'
#425000
b1000 !
1=
#430000
b1000 "
b1100 "
b1110 "
b1111 "
b0 !
0=
12
16
19
1<
1>
1;
18
15
1.
1/
10
11
1$
1%
1&
1'
#435000
b1000 !
1=
#440000
b111 "
b11 "
b1 "
b0 "
b0 !
0=
02
06
09
0<
0>
0;
08
05
0.
0/
00
01
0$
0%
0&
0'
#445000
b1000 !
1=
#450000
b1000 "
b1100 "
b1110 "
b1111 "
b0 !
0=
12
16
19
1<
1>
1;
18
15
1.
1/
10
11
1$
1%
1&
1'
#455000
b1000 !
1=
#460000
b111 "
b11 "
b1 "
b0 "
b0 !
0=
02
06
09
0<
0>
0;
08
05
0.
0/
00
01
0$
0%
0&
0'
#465000
b1000 !
1=
#470000
b1000 "
b1100 "
b1110 "
b1111 "
b0 !
0=
12
16
19
1<
1>
1;
18
15
1.
1/
10
11
1$
1%
1&
1'
#475000
b1000 !
1=
#480000
b111 "
b11 "
b1 "
b0 "
b0 !
0=
02
06
09
0<
0>
0;
08
05
0.
0/
00
01
0$
0%
0&
0'
#485000
b1000 !
1=
#490000
b1000 "
b1100 "
b1110 "
b1111 "
b0 !
0=
12
16
19
1<
1>
1;
18
15
1.
1/
10
11
1$
1%
1&
1'
#495000
b1000 !
1=
#500000
b111 "
b11 "
b1 "
b0 "
b0 !
0=
02
06
09
0<
0>
0;
08
05
0.
0/
00
01
0$
0%
0&
0'
#505000
b1000 !
1=
#510000
b1000 "
b1100 "
b1110 "
b1111 "
b0 !
0=
12
16
19
1<
1>
1;
18
15
1.
1/
10
11
1$
1%
1&
1'
#515000
b1000 !
1=
#520000
b111 "
b11 "
b1 "
b0 "
b0 !
0=
02
06
09
0<
0>
0;
08
05
0.
0/
00
01
0$
0%
0&
0'
#525000
b1000 !
1=
#530000
b1000 "
b1100 "
b1110 "
b1111 "
b0 !
0=
12
16
19
1<
1>
1;
18
15
1.
1/
10
11
1$
1%
1&
1'
#535000
b1000 !
1=
#540000
b111 "
b11 "
b1 "
b0 "
b0 !
0=
02
06
09
0<
0>
0;
08
05
0.
0/
00
01
0$
0%
0&
0'
#545000
b1000 !
1=
#550000
b1000 "
b1100 "
b1110 "
b1111 "
b0 !
0=
12
16
19
1<
1>
1;
18
15
1.
1/
10
11
1$
1%
1&
1'
#555000
b1000 !
1=
#560000
b111 "
b11 "
b1 "
b0 "
b0 !
0=
02
06
09
0<
0>
0;
08
05
0.
0/
00
01
0$
0%
0&
0'
#565000
b1000 !
1=
#570000
b1000 "
b1100 "
b1110 "
b1111 "
b0 !
0=
12
16
19
1<
1>
1;
18
15
1.
1/
10
11
1$
1%
1&
1'
#575000
b1000 !
1=
#580000
b111 "
b11 "
b1 "
b0 "
b0 !
0=
02
06
09
0<
0>
0;
08
05
0.
0/
00
01
0$
0%
0&
0'
#585000
b1000 !
1=
#590000
b1000 "
b1100 "
b1110 "
b1111 "
b0 !
0=
12
16
19
1<
1>
1;
18
15
1.
1/
10
11
1$
1%
1&
1'
#595000
b1000 !
1=
#600000
b111 "
b11 "
b1 "
b0 "
b0 !
0=
02
06
09
0<
0>
0;
08
05
0.
0/
00
01
0$
0%
0&
0'
#605000
b1000 !
1=
#610000
b1000 "
b1100 "
b1110 "
b1111 "
b0 !
0=
12
16
19
1<
1>
1;
18
15
1.
1/
10
11
1$
1%
1&
1'
#615000
b1000 !
1=
#620000
b111 "
b11 "
b1 "
b0 "
b0 !
0=
02
06
09
0<
0>
0;
08
05
0.
0/
00
01
0$
0%
0&
0'
#625000
b1000 !
1=
#630000
b1000 "
b1100 "
b1110 "
b1111 "
b0 !
0=
12
16
19
1<
1>
1;
18
15
1.
1/
10
11
1$
1%
1&
1'
#635000
b1000 !
1=
#640000
b111 "
b11 "
b1 "
b0 "
b0 !
0=
02
06
09
0<
0>
0;
08
05
0.
0/
00
01
0$
0%
0&
0'
#645000
b1000 !
1=
#650000
b1000 "
b1100 "
b1110 "
b1111 "
b0 !
0=
12
16
19
1<
1>
1;
18
15
1.
1/
10
11
1$
1%
1&
1'
#655000
b1000 !
1=
#660000
b111 "
b11 "
b1 "
b0 "
b0 !
0=
02
06
09
0<
0>
0;
08
05
0.
0/
00
01
0$
0%
0&
0'
#665000
b1000 !
1=
#670000
b1000 "
b1100 "
b1110 "
b1111 "
b0 !
0=
12
16
19
1<
1>
1;
18
15
1.
1/
10
11
1$
1%
1&
1'
#675000
b1000 !
1=
#680000
b111 "
b11 "
b1 "
b0 "
b0 !
0=
02
06
09
0<
0>
0;
08
05
0.
0/
00
01
0$
0%
0&
0'
#685000
b1000 !
1=
#690000
b1000 "
b1100 "
b1110 "
b1111 "
b0 !
0=
12
16
19
1<
1>
1;
18
15
1.
1/
10
11
1$
1%
1&
1'
#695000
b1000 !
1=
#700000
b111 "
b11 "
b1 "
b0 "
b0 !
0=
02
06
09
0<
0>
0;
08
05
0.
0/
00
01
0$
0%
0&
0'
#705000
b1000 !
1=
#710000
b1000 "
b1100 "
b1110 "
b1111 "
b0 !
0=
12
16
19
1<
1>
1;
18
15
1.
1/
10
11
1$
1%
1&
1'
#715000
b1000 !
1=
#720000
b111 "
b11 "
b1 "
b0 "
b0 !
0=
02
06
09
0<
0>
0;
08
05
0.
0/
00
01
0$
0%
0&
0'
#725000
b1000 !
1=
#730000
b1000 "
b1100 "
b1110 "
b1111 "
b0 !
0=
12
16
19
1<
1>
1;
18
15
1.
1/
10
11
1$
1%
1&
1'
#735000
b1000 !
1=
#740000
b111 "
b11 "
b1 "
b0 "
b0 !
0=
02
06
09
0<
0>
0;
08
05
0.
0/
00
01
0$
0%
0&
0'
#745000
b1000 !
1=
#750000
b1000 "
b1100 "
b1110 "
b1111 "
b0 !
0=
12
16
19
1<
1>
1;
18
15
1.
1/
10
11
1$
1%
1&
1'
#755000
b1000 !
1=
#760000
b111 "
b11 "
b1 "
b0 "
b0 !
0=
02
06
09
0<
0>
0;
08
05
0.
0/
00
01
0$
0%
0&
0'
#765000
b1000 !
1=
#770000
b1000 "
b1100 "
b1110 "
b1111 "
b0 !
0=
12
16
19
1<
1>
1;
18
15
1.
1/
10
11
1$
1%
1&
1'
#775000
b1000 !
1=
#780000
b111 "
b11 "
b1 "
b0 "
b0 !
0=
02
06
09
0<
0>
0;
08
05
0.
0/
00
01
0$
0%
0&
0'
#785000
b1000 !
1=
#790000
b1000 "
b1100 "
b1110 "
b1111 "
b0 !
0=
12
16
19
1<
1>
1;
18
15
1.
1/
10
11
1$
1%
1&
1'
#795000
b1000 !
1=
#800000
b111 "
b11 "
b1 "
b0 "
b0 !
0=
02
06
09
0<
0>
0;
08
05
0.
0/
00
01
0$
0%
0&
0'
#805000
b1000 !
1=
#810000
b1000 "
b1100 "
b1110 "
b1111 "
b0 !
0=
12
16
19
1<
1>
1;
18
15
1.
1/
10
11
1$
1%
1&
1'
#815000
b1000 !
1=
#820000
b111 "
b11 "
b1 "
b0 "
b0 !
0=
02
06
09
0<
0>
0;
08
05
0.
0/
00
01
0$
0%
0&
0'
#825000
b1000 !
1=
#830000
b1000 "
b1100 "
b1110 "
b1111 "
b0 !
0=
12
16
19
1<
1>
1;
18
15
1.
1/
10
11
1$
1%
1&
1'
#835000
b1000 !
1=
#840000
b111 "
b11 "
b1 "
b0 "
b0 !
0=
02
06
09
0<
0>
0;
08
05
0.
0/
00
01
0$
0%
0&
0'
#845000
b1000 !
1=
#850000
b1000 "
b1100 "
b1110 "
b1111 "
b0 !
0=
12
16
19
1<
1>
1;
18
15
1.
1/
10
11
1$
1%
1&
1'
#855000
b1000 !
1=
#860000
b111 "
b11 "
b1 "
b0 "
b0 !
0=
02
06
09
0<
0>
0;
08
05
0.
0/
00
01
0$
0%
0&
0'
#865000
b1000 !
1=
#870000
b1000 "
b1100 "
b1110 "
b1111 "
b0 !
0=
12
16
19
1<
1>
1;
18
15
1.
1/
10
11
1$
1%
1&
1'
#875000
b1000 !
1=
#880000
b111 "
b11 "
b1 "
b0 "
b0 !
0=
02
06
09
0<
0>
0;
08
05
0.
0/
00
01
0$
0%
0&
0'
#885000
b1000 !
1=
#890000
b1000 "
b1100 "
b1110 "
b1111 "
b0 !
0=
12
16
19
1<
1>
1;
18
15
1.
1/
10
11
1$
1%
1&
1'
#895000
b1000 !
1=
#900000
b111 "
b11 "
b1 "
b0 "
b0 !
0=
02
06
09
0<
0>
0;
08
05
0.
0/
00
01
0$
0%
0&
0'
#905000
b1000 !
1=
#910000
b1000 "
b1100 "
b1110 "
b1111 "
b0 !
0=
12
16
19
1<
1>
1;
18
15
1.
1/
10
11
1$
1%
1&
1'
#915000
b1000 !
1=
#920000
b111 "
b11 "
b1 "
b0 "
b0 !
0=
02
06
09
0<
0>
0;
08
05
0.
0/
00
01
0$
0%
0&
0'
#925000
b1000 !
1=
#930000
b1000 "
b1100 "
b1110 "
b1111 "
b0 !
0=
12
16
19
1<
1>
1;
18
15
1.
1/
10
11
1$
1%
1&
1'
#935000
b1000 !
1=
#940000
b111 "
b11 "
b1 "
b0 "
b0 !
0=
02
06
09
0<
0>
0;
08
05
0.
0/
00
01
0$
0%
0&
0'
#945000
b1000 !
1=
#950000
b1000 "
b1100 "
b1110 "
b1111 "
b0 !
0=
12
16
19
1<
1>
1;
18
15
1.
1/
10
11
1$
1%
1&
1'
#955000
b1000 !
1=
#960000
b111 "
b11 "
b1 "
b0 "
b0 !
0=
02
06
09
0<
0>
0;
08
05
0.
0/
00
01
0$
0%
0&
0'
#965000
b1000 !
1=
#970000
b1000 "
b1100 "
b1110 "
b1111 "
b0 !
0=
12
16
19
1<
1>
1;
18
15
1.
1/
10
11
1$
1%
1&
1'
#975000
b1000 !
1=
#980000
b111 "
b11 "
b1 "
b0 "
b0 !
0=
02
06
09
0<
0>
0;
08
05
0.
0/
00
01
0$
0%
0&
0'
#985000
b1000 !
1=
#990000
b1000 "
b1100 "
b1110 "
b1111 "
b0 !
0=
12
16
19
1<
1>
1;
18
15
1.
1/
10
11
1$
1%
1&
1'
#995000
b1000 !
1=
